ALPHABET: A C G T 
ORDER: 0
SUBST_MOD: HKY85
TRAINING_LNL: -118.854385
BACKGROUND: 0.242424 0.220779 0.229437 0.307359 
RATE_MAT:
  -0.994197    0.220994    0.465544    0.307659 
   0.242660   -1.095975    0.229661    0.623654 
   0.491896    0.220994   -1.020549    0.307659 
   0.242660    0.447976    0.229661   -0.920298 
TREE: ((ec_K12:0.013079,ec_O157H7:0.000000):0.006566,ec_APEC_O1:0.006566);
