ALPHABET: A C G T 
ORDER: 0
SUBST_MOD: REV
TRAINING_LNL: -357.137890
BACKGROUND: 0.204906 0.249639 0.239538 0.305916 
RATE_MAT:
  -1.159241    0.237717    0.777684    0.143840 
   0.195121   -1.023837    0.345872    0.482844 
   0.665247    0.360457   -1.257752    0.232047 
   0.096346    0.394019    0.181698   -0.672062 
TREE: ((((((ec_K12:0.009621,ec_O157H7:0.000000):0.010097,ec_APEC_O1:0.019525):0.004176,ente638:0.532426):0.026079,shigFlex_2A:0.000000):0.301655,salmTyph:0.000025):0.000013,salmEnte_PARATYPI_ATC:0.000013);
