ALPHABET: A C G T 
ORDER: 0
SUBST_MOD: REV
TRAINING_LNL: -64.906196
BACKGROUND: 0.183206 0.229008 0.374046 0.213740 
RATE_MAT:
 -1.459556e+00   1.401331e-17   1.459556e+00   1.307909e-17 
  1.121065e-17  -7.421009e-01   2.428057e-01   4.992952e-01 
  7.148846e-01   1.486566e-01  -1.031044e+00   1.675026e-01 
  1.121065e-17   5.349591e-01   2.931296e-01  -8.280887e-01 
TREE: ((((((ec_K12:0.000000,ec_O157H7:0.054444):0.000000,ec_APEC_O1:0.000000):0.000000,ente638:1.866854):0.054444,shigFlex_2A:0.000000):0.128465,salmTyph:0.000000):0.000000,salmEnte_PARATYPI_ATC:0.000000);
